﻿"nama siswa","nomor induk","tempat lahir","tanggal lahir","jenis kelamin"
Joni,172635,Depok,2018-01-03,l
Leni,172635,Jakarta,2018-01-01,p
Qiana,172635,Jakarta,2018-01-01,p
Bekti,172635,Depok,2018-01-03,l

