﻿NISN,NIS,Nama,JenisKelamin
0001456812,1153677,WILIAM,L
0008103095,1153662,MAYLINDA,P
0003174134,1153659,HADINDA MAHARANI S.P,P
0000982960,1153675,TASYA LOISA SANDOVAL,P
0006097843,1153669,RAIHAN AMMAR,L
0001305179,1153674,SITI AMALIA,P
0003792771,1153672,RINANDA FITRIANI,P
0000960650,1153654,DEDI WAHYUDI,L
0007367790,1153653,BILLY RIYAN ANANTA,L
0010518091,1153666,NOVI DWI YULIANI,P



